7 Bootstrap and confidence intervals | Environmental Statistics
…
transport <- sapply(travel_time, function(x) {
  if(x <= 10) 'foot'
  else if(x > 10 & x <= 15) sample(c('foot', 'bike'), size = 1)
  else if(x > 15 & x <= 45) sample(c('bus', 'bike', 'car'), size = 1)
  else sample(c('bus', 'car'), size = 1)
})

time_lib <- 5 * 60 - 0.7 * travel_time + rnorm(length(travel_time), 0, 20)

getsmarter_pop <- tibble(student_id, gender, residence, transport, travel_time, time_lib)

getsmarter_pop

## # A tibble: 12,000 × 6
##    student_id gender residence transport travel_time time_lib
##         <int> <chr>  <chr>     <chr>           <dbl>    <dbl>
##  1          1 f      urban     bus             15.1      294.
##  2          2 f      rural     bike            32.6      254.
##  3          3 f      urban     bike            19.3      231.
##  4          4 m      rural     car             35.9      245.
##  5          5 m      rural     bus             37.9      234.
##  6          6 f      urban     foot             6.59     303.
##  7          7 f      urban     bus             23.5      284.
##  8          8 m      rural     car             36.2      274.
##  9          9 m      urban     bike            24.3      299.
## 10         10 f      urban     bus             21.0      282.
## # ℹ 11,990 more rows
…
To calculate the bootstrap distribution, we sample from the data set survey with replacement. The size of the bootstrap samples always equal the size of the original sample. We use the same function rep_sample_n as in chapter 6, but change replace = TRUE.

set.seed(345)

reps_num <- 10000

survey_reps_bootstrap <- rep_sample_n(survey, size = survey_size, replace = TRUE, reps = reps_num)

survey_reps_bootstrap

## # A tibble: 2,000,000 × 7
## # Groups:   replicate [10,000]
##    replicate student_id gender residence transport travel_time time_lib
##        <int>      <int> <chr>  <chr>     <chr>           <dbl>    <dbl>
##  1         1       7038 m      urban     bus             29.4      243.
##  2         1        493 m      urban     bus             21.1      303.
##  3         1       3442 m      rural     car             30.3      311.
##  4         1       4920 f      urban     bus             21.1      290.
##  5         1       3178 f      urban     foot             8.07     325.
##  6         1       7694 f      rural     car             31.3      295.
##  7         1       9479 m      rural     bus             39.5      302.
##  8         1       3367 m      rural     car             36.4      272.
##  9         1       5985 f      urban     bike            15.9      303.
## 10         1        843 m      urban     bike            26.4      300.
## # ℹ 1,999,990 more rows

Because we sample with replacement, students can now appear several times in one and the same bootstrap sample. Let’s check this for the first 50 bootstrap samples. Student 4787 was sampled 8 times in the replicate 43, for example.

survey_reps_bootstrap %>% 
  filter(replicate %in% (1:50)) %>% 
  group_by(replicate, student_id) %>% 
  tally() %>% 
  filter(n != 1) %>% 
  arrange(desc(n))

## # A tibble: 2,657 × 3
## # Groups:   replicate [50]
##    replicate student_id     n
##        <int>      <int> <int>
##  1        43       4787     8
##  2        20       5985     6
##  3        34       7749     6
##  4        38       5641     6
##  5        41       8456     6
##  6         3       7083     5
##  7         3      10943     5
##  8         5       8994     5
##  9         6      10118     5
## 10         8      11425     5
## # ℹ 2,647 more rows

Now we can calculate the mean travel times from the bootstrap samples.

res_means_bootstrap <- survey_reps_bootstrap %>%
  group_by(replicate) %>% 
  summarise(mean_tt = mean(travel_time))

res_means_bootstrap

## # A tibble: 10,000 × 2
##    replicate mean_tt
##        <int>   <dbl>
##  1         1    32.6
##  2         2    31.9
##  3         3    38.9
##  4         4    33.5
##  5         5    35.4
##  6         6    37.2
##  7         7    34.4
##  8         8    33.4
##  9         9    35.5
## 10        10    31.0
## # ℹ 9,990 more rows
…
