8 Hypothesis tests versus effect size estimation | Environmental Statistics
…
null_distn <- study %>%
  specify(formula = decision ~ gender, success = "promoted") %>%
  hypothesize(null = "independence") %>% 
  generate(reps = 10000) %>% 
  calculate(stat = "diff in props", order = c("male", "female"))

## Setting `type = "permute"` in `generate()`.

null_distn

## Response: decision (factor)
## Explanatory: gender (factor)
## Null Hypothesis: independence
## # A tibble: 10,000 × 2
##    replicate    stat
##        <int>   <dbl>
##  1         1  0.125 
##  2         2  0.292 
##  3         3 -0.0417
##  4         4 -0.0417
##  5         5 -0.125 
##  6         6 -0.0417
##  7         7  0.0417
##  8         8  0.0417
##  9         9  0.0417
## 10        10  0.0417
## # ℹ 9,990 more rows
…
