9 Linear regression | Environmental Statistics
…
transport <- sapply(travel_time, function(x) {
  if(x <= 10) 'foot'
  else if(x > 10 & x <= 15) sample(c('foot', 'bike'), size = 1)
  else if(x > 15 & x <= 45) sample(c('bus', 'bike', 'car'), size = 1)
  else sample(c('bus', 'car'), size = 1)
})

time_lib <- 5 * 60 - 0.7 * travel_time + rnorm(length(travel_time), 0, 20)

getsmarter_pop <- tibble(student_id, gender, residence, transport, travel_time, time_lib)

getsmarter_pop

## # A tibble: 12,000 × 6
##    student_id gender residence transport travel_time time_lib
##         <int> <chr>  <chr>     <chr>           <dbl>    <dbl>
##  1          1 f      urban     bus             15.1      294.
##  2          2 f      rural     bike            32.6      254.
##  3          3 f      urban     bike            19.3      231.
##  4          4 m      rural     car             35.9      245.
##  5          5 m      rural     bus             37.9      234.
##  6          6 f      urban     foot             6.59     303.
##  7          7 f      urban     bus             23.5      284.
##  8          8 m      rural     car             36.2      274.
##  9          9 m      urban     bike            24.3      299.
## 10         10 f      urban     bus             21.0      282.
## # … with 11,990 more rows
…
-0.665

The estimated intercept equals 302.094 minutes and the slope -0.766 minutes, respectively. We can write our model as:

\[\widehat{\text{time_lib}_i} = 302.094 - 0.766 \cdot \text{travel_time}_i + \varepsilon_i\]
The model estimates a time_lib value for every student \(i\), with \(i\) being an arbitrary student index running from 1 to 200 because we have surveyed 200 students. The “hat” above \(\text{time_lib}_i\) indicates that this is an estimate. The estimated time in the library is the systematic component of the model, namely \(302.094 - 0.766 \cdot \text{travel_time}_i\). The difference of the actual time in the library and this estimated value is the error term or the residuum \(\varepsilon_i\).

To simplify our analysis, we put the original data, estimated values (also called fitted values) and the residuals in one tibble. The respective values can be extracted from the model object lin_mod with the functions fitted() and residuals().

model_res <- survey %>%
  mutate(fitted = fitted(lin_mod), residuals = residuals(lin_mod))

model_res

## # A tibble: 200 × 9
## # Groups:   replicate [1]
##    replicate student_id gender residence transport travel_time time_lib fitted
##        <int>      <int> <chr>  <chr>     <chr>           <dbl>    <dbl>  <dbl>
##  1         1       1623 m      urban     foot             7.06     299.   297.
##  2         1       9171 m      urban     bike            11.3      278.   293.
##  3         1      10207 f      rural     bus            107.       199.   220.
##  4         1       3506 f      urban     bus             25.0      326.   283.
##  5         1       8892 f      urban     bus             28.1      259.   281.
##  6         1       5460 m      urban     bus             23.6      299.   284.
##  7         1       6120 f      urban     bus             20.0      268.   287.
##  8         1        865 f      urban     bike            26.6      290.   282.
##  9         1      11586 m      rural     bus            114.       207.   215.
## 10         1       8153 f      urban     foot             8.06     297.   296.
## # … with 190 more rows, and 1 more variable: residuals <dbl>
…
