6 Sampling and variability | Environmental Statistics
…
transport <- sapply(travel_time, function(x) {
  if(x <= 10) 'foot'
  else if(x > 10 & x <= 15) sample(c('foot', 'bike'), size = 1)
  else if(x > 15 & x <= 45) sample(c('bus', 'bike', 'car'), size = 1)
  else sample(c('bus', 'car'), size = 1)
})

time_lib <- 5 * 60 - 0.7 * travel_time + rnorm(length(travel_time), 0, 20)

getsmarter_pop <- tibble(student_id, gender, residence, transport, travel_time, time_lib)

getsmarter_pop

## # A tibble: 12,000 × 6
##    student_id gender residence transport travel_time time_lib
##         <int> <chr>  <chr>     <chr>           <dbl>    <dbl>
##  1          1 f      urban     bus             15.1      294.
##  2          2 f      rural     bike            32.6      254.
##  3          3 f      urban     bike            19.3      231.
##  4          4 m      rural     car             35.9      245.
##  5          5 m      rural     bus             37.9      234.
##  6          6 f      urban     foot             6.59     303.
##  7          7 f      urban     bus             23.5      284.
##  8          8 m      rural     car             36.2      274.
##  9          9 m      urban     bike            24.3      299.
## 10         10 f      urban     bus             21.0      282.
## # … with 11,990 more rows
We conduct a survey among the students of getsmarter and record the values of the variables listed above. We select the students randomly. Therefore, the data set that we generate through our survey will be a random sample. To simulate such a survey, we use the function rep_sample_n(). It samples repeatedly n data points (students in our case) from a given data set (our population getsmarter_pop).

Because we sample randomly (and use the random number generator in R to do so), we need to set the seed again for reproducibility. We will simulate a survey of 50 students and define the survey size by survey_size <- 50. The survey will be done once, parameter reps = 1, and students can be interviewed only once, parameter replace = FALSE, in the function rep_sample_n().

set.seed(345)

survey_size <- 50

survey <- rep_sample_n(getsmarter_pop, size = survey_size, replace = FALSE, reps = 1)

The function rep_sample_n returns a grouped tibble. The variable replicate contained only the number 1 because rep = 1. It is an indicator variable of the replication.

survey

## # A tibble: 50 × 7
## # Groups:   replicate [1]
##    replicate student_id gender residence transport travel_time time_lib
##        <int>      <int> <chr>  <chr>     <chr>           <dbl>    <dbl>
##  1         1       1623 m      urban     foot             7.06     299.
##  2         1       9171 m      urban     bike            11.3      278.
##  3         1      10207 f      rural     bus            107.       199.
##  4         1       3506 f      urban     bus             25.0      326.
##  5         1       8892 f      urban     bus             28.1      259.
##  6         1       5460 m      urban     bus             23.6      299.
##  7         1       6120 f      urban     bus             20.0      268.
##  8         1        865 f      urban     bike            26.6      290.
##  9         1      11586 m      rural     bus            114.       207.
## 10         1       8153 f      urban     foot             8.06     297.
## # … with 40 more rows
…
42% of survey students live in the countryside and 58% in town.

But which proportions would we obtain if we repeated the survey? Let’s repeat the survey 33 times and observe the variability in residence. This is an unrealistic scenario for real life, however, for a computer experiment, no problem. We set reps = 33.

set.seed(234)

survey_reps <- rep_sample_n(getsmarter_pop, size = survey_size, replace = FALSE, reps = 33)

Now survey_reps shows 33 replicates and the variable replicate ranges from 1 to 33. The data set has 1650 = 33 \(\times\) survey_size rows.

survey_reps

## # A tibble: 1,650 × 7
## # Groups:   replicate [33]
##    replicate student_id gender residence transport travel_time time_lib
##        <int>      <int> <chr>  <chr>     <chr>           <dbl>    <dbl>
##  1         1       2079 m      rural     car              38.8     262.
##  2         1       1314 m      urban     bike             13.3     301.
##  3         1       1710 m      urban     car              26.5     272.
##  4         1       4386 f      urban     bus              23.9     269.
##  5         1       9490 m      rural     car              34.2     262.
##  6         1      11757 f      rural     bus             102.      227.
##  7         1      11649 f      rural     bus             111.      202.
##  8         1       2244 m      rural     bus              38.9     256.
##  9         1       3652 f      urban     bike             10.3     254.
## 10         1       3127 m      urban     bike             29.6     271.
## # … with 1,640 more rows

How do the proportions in residence vary from survey to survey? Now we must group by residence and replicate.

residence_props <- survey_reps %>% 
  group_by(replicate, residence) %>% 
  summarise(prop = n()/survey_size)

residence_props

## # A tibble: 66 × 3
## # Groups:   replicate [33]
##    replicate residence  prop
##        <int> <chr>     <dbl>
##  1         1 rural      0.42
##  2         1 urban      0.58
##  3         2 rural      0.36
##  4         2 urban      0.64
##  5         3 rural      0.4 
##  6         3 urban      0.6 
##  7         4 rural      0.38
##  8         4 urban      0.62
##  9         5 rural      0.4 
## 10         5 urban      0.6 
## # … with 56 more rows
…
