5 Explorative workflow with tidyverse | Environmental Statistics
…
read_delim() reports on reading the data about the variables it recognizes. This is a good hint to spot for possible problems. Are numerical variables read as <dbl>? Are characters recognized as <char> etc. In the code above, the parameter trim_ws = T removes leading zeroes.

Let’s have a short glimpse of the data.

temp_humid

## # A tibble: 39,600 × 6
##    STATIONS_ID MESS_DATUM  QN_9 TT_TU RF_TU eor  
##          <dbl>      <dbl> <dbl> <dbl> <dbl> <chr>
##  1        2261 2018111900     3  -2.8    99 eor  
##  2        2261 2018111901     3  -2.5   100 eor  
##  3        2261 2018111902     3  -2.3   100 eor  
##  4        2261 2018111903     3  -2     100 eor  
##  5        2261 2018111904     3  -1.9    99 eor  
##  6        2261 2018111905     3  -2.1    99 eor  
##  7        2261 2018111906     3  -1.8    99 eor  
##  8        2261 2018111907     3  -1.5    99 eor  
##  9        2261 2018111908     3  -1.1    99 eor  
## 10        2261 2018111909     3  -0.6    97 eor  
## # ℹ 39,590 more rows
…
## [1] "spec_tbl_df" "tbl_df"      "tbl"         "data.frame"

5.2.2 Date and time made easy

A very useful package to handle date and time is called lubridate. It is not part of core packages in tidyverse but is installed with the long list of additional packages. We will use it to convert the variable MESS_DATUM to a real date-time variable.

The function ymd_h() converts character vectors to date-time objects provided they have the format year, month, day, hour. There are other function for different other formats; consult help.

library(lubridate)

temp_humid$MESS_DATUM <- ymd_h(temp_humid$MESS_DATUM)

temp_humid

## # A tibble: 39,600 × 6
##    STATIONS_ID MESS_DATUM           QN_9 TT_TU RF_TU eor  
##          <dbl> <dttm>              <dbl> <dbl> <dbl> <chr>
##  1        2261 2018-11-19 00:00:00     3  -2.8    99 eor  
##  2        2261 2018-11-19 01:00:00     3  -2.5   100 eor  
##  3        2261 2018-11-19 02:00:00     3  -2.3   100 eor  
##  4        2261 2018-11-19 03:00:00     3  -2     100 eor  
##  5        2261 2018-11-19 04:00:00     3  -1.9    99 eor  
##  6        2261 2018-11-19 05:00:00     3  -2.1    99 eor  
##  7        2261 2018-11-19 06:00:00     3  -1.8    99 eor  
##  8        2261 2018-11-19 07:00:00     3  -1.5    99 eor  
##  9        2261 2018-11-19 08:00:00     3  -1.1    99 eor  
## 10        2261 2018-11-19 09:00:00     3  -0.6    97 eor  
## # ℹ 39,590 more rows
…
5.2.6 Create new variables with mutate()

We want to calculate the monthly means and standard deviations of the air temperature and humidity. First, we need to generate the temporal information, namely year and month, that will be used to group the temperature values to calculate mean() and sd(). This can be achieved with the functions year()and month() from library lubridate. The function mutate() can create new variables in a data object.

temp_humid <- temp_humid %>% 
  mutate(year = year(MESS_DATUM),
         month = month(MESS_DATUM))

temp_humid

## # A tibble: 39,600 × 8
##    STATIONS_ID MESS_DATUM           QN_9 TT_TU RF_TU eor    year month
##          <dbl> <dttm>              <dbl> <dbl> <dbl> <chr> <dbl> <dbl>
##  1        2261 2018-11-19 00:00:00     3  -2.8    99 eor    2018    11
##  2        2261 2018-11-19 01:00:00     3  -2.5   100 eor    2018    11
##  3        2261 2018-11-19 02:00:00     3  -2.3   100 eor    2018    11
##  4        2261 2018-11-19 03:00:00     3  -2     100 eor    2018    11
##  5        2261 2018-11-19 04:00:00     3  -1.9    99 eor    2018    11
##  6        2261 2018-11-19 05:00:00     3  -2.1    99 eor    2018    11
##  7        2261 2018-11-19 06:00:00     3  -1.8    99 eor    2018    11
##  8        2261 2018-11-19 07:00:00     3  -1.5    99 eor    2018    11
##  9        2261 2018-11-19 08:00:00     3  -1.1    99 eor    2018    11
## 10        2261 2018-11-19 09:00:00     3  -0.6    97 eor    2018    11
## # ℹ 39,590 more rows

In the next step, we create a new data set and calculate the means and standard deviations. To get them by station, year and month, we group the data accordingly. To group by several variables, just enumerate them with a comma (no quotation or c() necessary).

monthly_means <- temp_humid %>%
  group_by(STATIONS_ID, year, month) %>% 
  summarize(mean_T = mean(TT_TU), mean_RH = mean(RF_TU),
            sd_T = sd(TT_TU), sd_RH = sd(RF_TU))

## `summarise()` has grouped output by 'STATIONS_ID', 'year'. You can override using the `.groups` argument.

monthly_means

## # A tibble: 57 × 7
## # Groups:   STATIONS_ID, year [9]
##    STATIONS_ID  year month mean_T mean_RH  sd_T sd_RH
##          <dbl> <dbl> <dbl>  <dbl>   <dbl> <dbl> <dbl>
##  1        1420  2018    11   4.00    79.7  1.82  9.96
##  2        1420  2018    12   4.73    83.7  4.20 11.7 
##  3        1420  2019     1   2.12    79.3  3.76 10.0 
##  4        1420  2019     2   4.48    74.1  4.69 17.7 
##  5        1420  2019     3   8.28    68.5  4.08 16.1 
##  6        1420  2019     4  11.7     61.0  5.52 21.8 
##  7        1420  2019     5  12.7     67.5  4.64 20.1 
##  8        1420  2019     6  21.4     60.6  6.05 21.2 
##  9        1420  2019     7  21.6     55.6  5.90 21.8 
## 10        1420  2019     8  20.7     65.6  4.94 20.8 
## # ℹ 47 more rows
…
Some calculations are better done on ungrouped data. Therefore, we remove the grouping. This does not change the data itself.

monthly_means <- ungroup(monthly_means)

To plot the monthly data, we need a proper monthly date object. We will attribute the monthly means to the first of the respective month. Again, lubridate helps with this task. The function parse_dat_time() is a general function taking a character string and returning a date-time object. We need to “glue” the variables year and month together with paste0() (yes, it is a zero, not an O!) to form such a string and specify that orders = 'ym', i.e. year before month. Finally, we relocate() the new variable year_month before the variable year for convenience (if not, it will be created as the last variable in the data set).

monthly_means <- monthly_means %>%
  mutate(year_month = parse_date_time(paste0(year, month), orders = 'ym', tz = 'CET')) %>% 
  relocate(year_month, .before = year)

monthly_means

## # A tibble: 57 × 8
##    STATIONS_ID year_month           year month mean_T mean_RH  sd_T sd_RH
##          <dbl> <dttm>              <dbl> <dbl>  <dbl>   <dbl> <dbl> <dbl>
##  1        1420 2018-11-01 00:00:00  2018    11   4.00    79.7  1.82  9.96
##  2        1420 2018-12-01 00:00:00  2018    12   4.73    83.7  4.20 11.7 
##  3        1420 2019-01-01 00:00:00  2019     1   2.12    79.3  3.76 10.0 
##  4        1420 2019-02-01 00:00:00  2019     2   4.48    74.1  4.69 17.7 
##  5        1420 2019-03-01 00:00:00  2019     3   8.28    68.5  4.08 16.1 
##  6        1420 2019-04-01 00:00:00  2019     4  11.7     61.0  5.52 21.8 
##  7        1420 2019-05-01 00:00:00  2019     5  12.7     67.5  4.64 20.1 
##  8        1420 2019-06-01 00:00:00  2019     6  21.4     60.6  6.05 21.2 
##  9        1420 2019-07-01 00:00:00  2019     7  21.6     55.6  5.90 21.8 
## 10        1420 2019-08-01 00:00:00  2019     8  20.7     65.6  4.94 20.8 
## # ℹ 47 more rows
…
