11 Introduction to time series analysis | Environmental Statistics
…
clim <- read_delim('data/produkt_klima_tag_19570701_20211231_02667.txt', delim = ';', na = '-999', trim_ws = TRUE)

## Rows: 23560 Columns: 19
## ── Column specification ────────────────────────────────────────────────────────
## Delimiter: ";"
## chr  (1): eor
## dbl (18): STATIONS_ID, MESS_DATUM, QN_3, FX, FM, QN_4, RSK, RSKF, SDK, SHK_T...
## 
## ℹ Use `spec()` to retrieve the full column specification for this data.
## ℹ Specify the column types or set `show_col_types = FALSE` to quiet this message.

clim

## # A tibble: 23,560 × 19
##    STATIONS_ID MESS_DATUM  QN_3    FX    FM  QN_4   RSK  RSKF   SDK SHK_TAG
##          <dbl>      <dbl> <dbl> <dbl> <dbl> <dbl> <dbl> <dbl> <dbl>   <dbl>
##  1        2667   19570701     5  16     2.9    NA    NA    NA    NA      NA
##  2        2667   19570702     5   4.7   1.8    NA    NA    NA    NA      NA
##  3        2667   19570703     5  10.3   3.5    NA    NA    NA    NA      NA
##  4        2667   19570704     5   9.6   3.4    NA    NA    NA    NA      NA
##  5        2667   19570705     5  10.4   2.9    NA    NA    NA    NA      NA
##  6        2667   19570706     5   9.2   2.9    NA    NA    NA    NA      NA
##  7        2667   19570707     5  10.5   3.5    NA    NA    NA    NA      NA
##  8        2667   19570708     5  15.9   2.2    NA    NA    NA    NA      NA
##  9        2667   19570709     5  13.2   3.1    NA    NA    NA    NA      NA
## 10        2667   19570710     5  18.2   2.6    NA    NA    NA    NA      NA
## # … with 23,550 more rows, and 9 more variables: NM <dbl>, VPM <dbl>, PM <dbl>,
## #   TMK <dbl>, UPM <dbl>, TXK <dbl>, TNK <dbl>, TGK <dbl>, eor <chr>

The date of the measurement is not a proper date format and we must convert it first.

clim <- clim %>% 
  mutate(MESS_DATUM = ymd(MESS_DATUM))

clim

## # A tibble: 23,560 × 19
##    STATIONS_ID MESS_DATUM  QN_3    FX    FM  QN_4   RSK  RSKF   SDK SHK_TAG
##          <dbl> <date>     <dbl> <dbl> <dbl> <dbl> <dbl> <dbl> <dbl>   <dbl>
##  1        2667 1957-07-01     5  16     2.9    NA    NA    NA    NA      NA
##  2        2667 1957-07-02     5   4.7   1.8    NA    NA    NA    NA      NA
##  3        2667 1957-07-03     5  10.3   3.5    NA    NA    NA    NA      NA
##  4        2667 1957-07-04     5   9.6   3.4    NA    NA    NA    NA      NA
##  5        2667 1957-07-05     5  10.4   2.9    NA    NA    NA    NA      NA
##  6        2667 1957-07-06     5   9.2   2.9    NA    NA    NA    NA      NA
##  7        2667 1957-07-07     5  10.5   3.5    NA    NA    NA    NA      NA
##  8        2667 1957-07-08     5  15.9   2.2    NA    NA    NA    NA      NA
##  9        2667 1957-07-09     5  13.2   3.1    NA    NA    NA    NA      NA
## 10        2667 1957-07-10     5  18.2   2.6    NA    NA    NA    NA      NA
## # … with 23,550 more rows, and 9 more variables: NM <dbl>, VPM <dbl>, PM <dbl>,
## #   TMK <dbl>, UPM <dbl>, TXK <dbl>, TNK <dbl>, TGK <dbl>, eor <chr>
…
We want to analyse complete years only. Which years should be deleted because of too few data points?

clim %>% 
  group_by(year(MESS_DATUM)) %>% 
  tally()

## # A tibble: 65 × 2
##    `year(MESS_DATUM)`     n
##                 <dbl> <int>
##  1               1957   184
##  2               1958   365
##  3               1959   365
##  4               1960   366
##  5               1961   365
##  6               1962   365
##  7               1963   365
##  8               1964   366
##  9               1965   365
## 10               1966   365
## # … with 55 more rows
…
clim <- clim %>% 
  filter(year(MESS_DATUM) != '1957')

11.3 Trend analysis of yearly data

We summarize the temperature to yearly values to exclude the seasonal fluctuations. This helps to analyse the trend.

temp_yearly <- clim %>% 
  group_by(year(MESS_DATUM)) %>% 
  summarize(mean_temp = mean(TMK, na.rm = T)) %>% 
  rename(year = `year(MESS_DATUM)`)

temp_yearly

## # A tibble: 64 × 2
##     year mean_temp
##    <dbl>     <dbl>
##  1  1958      9.76
##  2  1959     10.6 
##  3  1960     10.1 
##  4  1961     10.5 
##  5  1962      8.56
##  6  1963      8.48
##  7  1964      9.86
##  8  1965      9.26
##  9  1966     10.2 
## 10  1967     10.5 
## # … with 54 more rows
…
Summarize by month

temp_monthly <- clim %>% 
  group_by(year(MESS_DATUM), month(MESS_DATUM)) %>% 
  summarize(mean_temp = mean(TMK, na.rm = T)) %>% 
  rename(year = `year(MESS_DATUM)`, month = `month(MESS_DATUM)`) %>% 
  mutate(date = ymd(paste(year, month, '15', sep = '-'))) %>% 
  relocate(date)

## `summarise()` has grouped output by 'year(MESS_DATUM)'. You can override using
## the `.groups` argument.

temp_monthly

## # A tibble: 768 × 4
## # Groups:   year [64]
##    date        year month mean_temp
##    <date>     <dbl> <dbl>     <dbl>
##  1 1958-01-15  1958     1      2.08
##  2 1958-02-15  1958     2      4.46
##  3 1958-03-15  1958     3      1.89
##  4 1958-04-15  1958     4      6.74
##  5 1958-05-15  1958     5     13.8 
##  6 1958-06-15  1958     6     15.5 
##  7 1958-07-15  1958     7     17.7 
##  8 1958-08-15  1958     8     18.0 
##  9 1958-09-15  1958     9     16.1 
## 10 1958-10-15  1958    10     10.4 
## # … with 758 more rows
…
